.. mill_openscad documentation master file, created by
   sphinx-quickstart on Wed Mar 22 12:15:27 2023.
   You can adapt this file completely to your liking, but it should at least
   contain the root `toctree` directive.

Welcome to mill_openscad's documentation!
=========================================

.. toctree::
   :maxdepth: 2
   :caption: Contents:
   
   basics.rst
   
   application.rst
   
   language.rst
   
   first_examples.rst
   
   transformations.rst
   
   boolean_operations.rst
   
   math.rst
   
   modularity.rst



Indices and tables
==================

* :ref:`genindex`
* :ref:`modindex`
* :ref:`search`
